{
	"info": {
		"_postman_id": "980d01e9-5dbc-4190-bbaf-3f28df0a6fd4",
		"name": "SamuraiJS",
		"schema": "https://schema.getpostman.com/json/collection/v2.1.0/collection.json"
	},
	"item": [
		{
			"name": "New Request",
			"request": {
				"method": "GET",
				"header": [],
				"url": {
					"raw": "https://social-network.samuraijs.com/api/1.0/users?term=serg",
					"protocol": "https",
					"host": [
						"social-network",
						"samuraijs",
						"com"
					],
					"path": [
						"api",
						"1.0",
						"users"
					],
					"query": [
						{
							"key": "term",
							"value": "serg"
						}
					]
				}
			},
			"response": []
		}
	]
}